…
autocor_vals <- bind_rows(test_dfs)

autocor_vals %>% 
  filter(p < 0.05 & statistic <1) %>%
  arrange(statistic) -> sig_pos_autocor_vals

autocor_vals %>% 
  filter(p < 0.05 & statistic >3) %>%
  arrange(statistic) -> sig_neg_autocor_vals

sig_pos_autocor_vals
```

    ## # A tibble: 47 x 4
    ##    statistic           p sp4   model                 
    ##        <dbl>       <dbl> <fct> <fct>                 
    ##  1     0.534 0.000000785 HYEL  seed_dry_log_cs       
    ##  2     0.542 0.000000950 HYEL  endocarp_investment_cs
    ##  3     0.551 0.00000120  HYEL  cofruit_cs            
    ##  4     0.552 0.00000122  HYEL  seedpred_pres         
    ##  5     0.562 0.00000157  HYEL  bcireproductive_log_cs
    ##  6     0.562 0.00000158  HYEL  height_avg_cs         
    ##  7     0.606 0.0269      CERT  seed_dry_log_cs       
    ##  8     0.608 0.0272      CERT  endocarp_investment_cs
    ##  9     0.622 0.0296      CERT  seedpred_pres         
    ## 10     0.622 0.0296      CERT  cofruit_cs            
    ## # … with 37 more rows

``` r
sig_neg_autocor_vals
```

    ## # A tibble: 29 x 4
    ##    statistic        p sp4   model                 
    ##        <dbl>    <dbl> <fct> <fct>                 
    ##  1      3.01 0.00238  LUE1  endocarp_investment_cs
    ##  2      3.02 0.00201  LUE1  seed_dry_log_cs       
    ##  3      3.10 0.000707 PRIC  cvseed_cs             
    ##  4      3.15 0.000458 CHRC  cvseed_cs             
    ##  5      3.16 0.000414 CHRC  endocarp_investment_cs
    ##  6      3.16 0.000413 CHRC  seed_dry_log_cs       
    ##  7      3.16 0.000927 GUA1  bcireproductive_log_cs
    ##  8      3.16 0.000927 GUA1  height_avg_cs         
    ##  9      3.17 0.000858 GUA1  cofruit_cs            
    ## 10      3.17 0.000848 GUA1  seedpred_pres         
    ## # … with 19 more rows
…
autocor_vals_ar1 <- bind_rows(test_dfs_ar1)

autocor_vals_ar1 %>% 
  filter(p < 0.05 & statistic <1) %>%
  arrange(statistic) -> sig_pos_autocor_vals_ar1

autocor_vals %>% 
  filter(p < 0.05 & statistic >3) %>%
  arrange(statistic) -> sig_neg_autocor_vals_ar1

sig_pos_autocor_vals_ar1
```

    ## # A tibble: 42 x 4
    ##    statistic         p sp4   model                 
    ##        <dbl>     <dbl> <fct> <fct>                 
    ##  1     0.410 0.0000664 OCHP  seed_dry_log_cs       
    ##  2     0.413 0.0000696 OCHP  endocarp_investment_cs
    ##  3     0.415 0.0000725 OCHP  seedpred_pres         
    ##  4     0.419 0.0000779 OCHP  cofruit_cs            
    ##  5     0.439 0.000110  OCHP  cvseed_cs             
    ##  6     0.565 0.000709  OCHP  bcireproductive_log_cs
    ##  7     0.571 0.000760  OCHP  height_avg_cs         
    ##  8     0.684 0.000246  TYNC  cvseed_cs             
    ##  9     0.696 0.000293  TYNC  cofruit_cs            
    ## 10     0.702 0.000318  TYNC  endocarp_investment_cs
    ## # … with 32 more rows

``` r
sig_neg_autocor_vals_ar1
```

    ## # A tibble: 29 x 4
    ##    statistic        p sp4   model                 
    ##        <dbl>    <dbl> <fct> <fct>                 
    ##  1      3.01 0.00238  LUE1  endocarp_investment_cs
    ##  2      3.02 0.00201  LUE1  seed_dry_log_cs       
    ##  3      3.10 0.000707 PRIC  cvseed_cs             
    ##  4      3.15 0.000458 CHRC  cvseed_cs             
    ##  5      3.16 0.000414 CHRC  endocarp_investment_cs
    ##  6      3.16 0.000413 CHRC  seed_dry_log_cs       
    ##  7      3.16 0.000927 GUA1  bcireproductive_log_cs
    ##  8      3.16 0.000927 GUA1  height_avg_cs         
    ##  9      3.17 0.000858 GUA1  cofruit_cs            
    ## 10      3.17 0.000848 GUA1  seedpred_pres         
    ## # … with 19 more rows
…
